module gitlab.com/EMP/music_service

go 1.18

require (
	github.com/golang/protobuf v1.5.3
	github.com/google/uuid v1.3.0
	github.com/jackc/pgx/v5 v5.3.1
	github.com/spf13/cast v1.5.0
	go.uber.org/zap v1.24.0
	google.golang.org/grpc v1.54.0
)

require (
	github.com/jackc/pgpassfile v1.0.0 // indirect
	github.com/jackc/pgservicefile v0.0.0-20221227161230-091c0ba34f0a // indirect
	github.com/jackc/puddle/v2 v2.2.0 // indirect
	go.uber.org/atomic v1.7.0 // indirect
	go.uber.org/multierr v1.6.0 // indirect
	golang.org/x/crypto v0.6.0 // indirect
	golang.org/x/net v0.8.0 // indirect
	golang.org/x/sync v0.1.0 // indirect
	golang.org/x/sys v0.6.0 // indirect
	golang.org/x/text v0.8.0 // indirect
	google.golang.org/genproto v0.0.0-20230110181048-76db0878b65f // indirect
	google.golang.org/protobuf v1.28.1 // indirect
)
